1|Молоко|50.8|20
2|Мясо|499.9|7
3|Печенье|88.7|11
4|Чай|66.1|32
5|Йогурт|27.4|8
6|Колбаса|120.6|3
7|Конфеты|182.2|20
8|Сосиски|60.5|62
9|Сгущенное молоко|62.1|60
10|Чипсы|90.4|32
11|Соевое молоко|125.4|45
12|Яблоки|81.3|21
13|Кокосовое молоко|152.1|10
14|Бананы|49.4|17
15|Шоколад молочный|45.4|29
